{
	"20": {
		"NAME": "Нет ничего лучше пистолета",
		"COMMENT": "Это пистолет",
		"PRICES": [
			50
		],
		"PARENTS": [],
		"LEVELS": [
			{
				"RANGE": 0,
				"CLASS": "PLAYER",
				"COMMENT": "",
				"TAGS": [
					"W_PISTOL"
				]
			}
		]
	},
	"21": {
		"NAME": "Разве что автомат",
		"COMMENT": "Ваше основное оружие заменяется на автомат",
		"PRICES": [
			35
		],
		"PARENTS": [
			20
		],
		"LEVELS": [
			{
				"RANGE": 0,
				"CLASS": "PLAYER",
				"COMMENT": "Выше скорость, выше урон",
				"TAGS": [
					"W_RIFLE"	
				]
			}
		]
	},
	"22": {
		"NAME": "Ну или пулемет",
		"COMMENT": "Ваше основное оружие заменяется на пулемет",
		"PRICES": [
			130
		],
		"PARENTS": [
			21
		],
		"LEVELS": [
			{
				"RANGE": 0,
				"CLASS": "PLAYER",
				"COMMENT": "Больше пуль - меньше врагов",
				"TAGS": [
					"W_MACHINEGUN"
				]
			}
		]
	},
	"11": {
		"NAME": "Лазерная указка",
		"COMMENT": "Указывает врагам держаться подальше",
		"PRICES": [
			50,
			70
		],
		"PARENTS": [],
		"LEVELS": [
			{
				"RANGE": 0,
				"CLASS": "PLAYER",
				"COMMENT": "Отталкивает врагов по направлению курсора",
				"TAGS": [
					"W_LASER"
				]
			},
			{
				"RANGE": 1,
				"CLASS": "LASER",
				"COMMENT": "Отталкивает врагов по направлению курсора и наносит небольшой урон",
				"TAGS": [
					"POINT_DAMAGE_35"
				]
			}
		]
	},
	"12": {
		"NAME": "Лазерная коррекция",
		"COMMENT": "Заменяет лазерную указку",
		"PRICES": [
			140,
			80
		],
		"PARENTS": [
			11
		],
		"LEVELS": [
			{
				"RANGE": 0,
				"CLASS": "PLAYER",
				"COMMENT": "Отталкивает и наносит урон противникам вокруг героя",
				"TAGS": [
					"W_RLASER"
				]
			}
		]
	},
	"31": {
		"NAME": "Хлебное крошево",
		"COMMENT": "",
		"PRICES": [
			50,
			70
		],
		"PARENTS": [],
		"LEVELS": [
			{
				"RANGE": 0,
				"CLASS": "PLAYER",
				"COMMENT": "Запускает в указанную область гренки",
				"TAGS": [
					"W_BREAD"
				]
			},
			{
				"RANGE": 1,
				"CLASS": "PLAYER",
				"COMMENT": "Запускает в указанную область очень черствые гренки",
				"TAGS": [
					"W_BRUNT_BREAD"
				]
			},
			{
				"RANGE": 1,
				"CLASS": "BREAD",
				"COMMENT": "",
				"TAGS": [
					"UP_POINT_DAMAGE_1.27"
				]
			}
		]
	},
	"32": {
		"NAME": "Ракета земля-воздух-тостер",
		"COMMENT": "Заменяет \"хлебное крошево\"",
		"PRICES": [
			150,
			100
		],
		"PARENTS": [
			31
		],
		"LEVELS": [
			{
				"RANGE": 0,
				"CLASS": "PLAYER",
				"COMMENT": "Запуск ракет в указанную область",
				"TAGS": [
					"W_ROCKET"
				]
			},
			{
				"RANGE": 1,
				"CLASS": "ROCKET",
				"COMMENT": "Увеличение боекомплекта",
				"TAGS": [
					"ADD_MAGAZINE_3"
				]
			}
		]
	},
	"23": {
		"NAME": "Перезарядка на максималках",
		"COMMENT": "Ускорение перезарядки всех орудий",
		"PRICES": [
			100
		],
		"PARENTS": [
			12,
			32
		],
		"LEVELS": [
			{
				"RANGE": 0,
				"CLASS": "PLAYER",
				"COMMENT": "",
				"TAGS": [
					"WEAPON_SPEED_1.15"
				]
			}
		]
	},
	"51": {
		"NAME": "Заводной тостер",
		"COMMENT": "",
		"PRICES": [
			50,
			30
		],
		"PARENTS": [],
		"LEVELS": [
			{
				"RANGE": 0,
				"CLASS": "PLAYER",
				"COMMENT": "Увеличение скорости передвижения на 5%",
				"TAGS": [
					"SPEED_1.05"
				]
			},
			{
				"RANGE": 1,
				"CLASS": "PLAYER",
				"COMMENT": "Увеличение скорости передвижения на 10%",
				"TAGS": [
					"SPEED_1.1"
				]
			}
		]
	},
	"71": {
		"NAME": "Пьяный мастер",
		"COMMENT": "Тостер становится более изворотливым",
		"PRICES": [
			25,
			35
		],
		"PARENTS": [],
		"LEVELS": [
			{
				"RANGE": 0,
				"CLASS": "PLAYER",
				"COMMENT": "На 5% меньше урона",
				"TAGS": [
					"PROTECTION_1.05"
				]
			},
			{
				"RANGE": 1,
				"CLASS": "PLAYER",
				"COMMENT": "На 10% меньше урона",
				"TAGS": [
					"PROTECTION_1.1"
				]
			}
		]
	},
	"62": {
		"NAME": "Порхай как бабочка",
		"COMMENT": "Это умение позволяем тостеру перепрыгивать врагов",
		"PRICES": [
			50
		],
		"PARENTS": [
			51,
			71
		],
		"LEVELS": [
			{
				"RANGE": 0,
				"CLASS": "PLAYER",
				"COMMENT": "",
				"TAGS": [
					"W_JUMPING"
				]
			}
		]
	},
	"53": {
		"NAME": "Зеленая миля",
		"COMMENT": "При приземлении тостер бьёт током окружающих врагов.",
		"PRICES": [
			100,
			50
		],
		"PARENTS": [
			62
		],
		"LEVELS": [
			{
				"RANGE": 0,
				"CLASS": "JUMPING",
				"COMMENT": "Противники теряют способность к передвижению и атаке на 1 сек.",
				"TAGS": [
					"PARALISYS_1"
				]
			},
			{
				"RANGE": 1,
				"CLASS": "JUMPING",
				"COMMENT": "Противники теряют способность к передвижению и атаке на 1,5 сек",
				"TAGS": [
					"UP_PARALISYS_1.5"
				]
			}
		]
	},
	"73": {
		"NAME": "Жаль как пчела",
		"COMMENT": "При приземлении тостер наносит урон окружающим противникам",
		"PRICES": [
			50,
			100
		],
		"PARENTS": [
			62
		],
		"LEVELS": [
			{
				"RANGE": 0,
				"CLASS": "JUMPING",
				"COMMENT": "",
				"TAGS": [
					"RAD_DAMAGE_20"
				]
			},
			{
				"RANGE": 1,
				"CLASS": "JUMPING",
				"COMMENT": "",
				"TAGS": [
					"UP_RAD_DAMAGE_1.5"
				]
			}
		]
	},
	"43": {
		"NAME": "Обновленное ПО",
		"COMMENT": "Увеличение урона всех орудий на 15%",
		"PRICES": [
			100
		],
		"PARENTS": [
			32,
			62
		],
		"LEVELS": [
			{
				"RANGE": 0,
				"CLASS": "PLAYER",
				"COMMENT": "",
				"TAGS": [
					"WEAPON_DAMAGE_1.15"
				]
			}
		]
	}
}