{
	"ROUTER": [
		[
			{
				"CHANCE": 1,
				"TAGS": [
					"W_MELEE"
				]
			},
			{
				"CHANCE": 0.3,
				"TAGS": [
					"W_PISTOL"
				]
			},
			{
				"CHANCE": 0.1,
				"TAGS": [
					"W_MACHINEGUN"
				]
			}
		]
	]
}