{
	"DROP": [
		{
			"RANGE": 0,
			"CHANCE": 1,
			"NAME": "Пополнение микросхем",
			"COMMENT": "+10 к благосостоянию",
			"TYPE": "COINS",
			"TAGS": [
				"COIN_ME_10"
			]
		},
		{
			"RANGE": 0,
			"CHANCE": 1,
			"NAME": "Пополнение микросхем",
			"COMMENT": "+5 к благосостоянию",
			"TYPE": "COINS",
			"TAGS": [
				"COIN_ME_5"
			]
		},
		{
			"RANGE": 1,
			"CHANCE": 1,
			"NAME": "Увеличение скорости атаки",
			"COMMENT": "Взлом.                                            Увеличение скорострельности на 50% на 5 секунд",
			"TYPE": "ORANGE",
			"TAGS": [
				"DROP_CASE_1_1"
			]
		},
		{
			"RANGE": 1,
			"CHANCE": 1,
			"NAME": "Увеличение скорости атаки",
			"COMMENT": "Взлом.                                            Увеличение скорострельности на 20% на 10 секунд",
			"TYPE": "ORANGE",
			"TAGS": [
				"DROP_CASE_1_2"
			]
		},
		{
			"RANGE": 1,
			"CHANCE": 1,
			"NAME": "Увеличение урона",
			"COMMENT": "Взлом.                                            Увеличение урона на 20% на 10 секунд",
			"TYPE": "RED",
			"TAGS": [
				"DROP_CASE_1_3"
			]
		},
		{
			"RANGE": 1,
			"CHANCE": 1,
			"NAME": "Машина для убийств",
			"COMMENT": "Увеличение урона на 20% и скорострельности на 20% на 5 секунд",
			"TYPE": "RED",
			"TAGS": [
				"DROP_CASE_1_4"
			]
		},
		{
			"RANGE": 2,
			"CHANCE": 1,
			"NAME": "Увеличение перемещения",
			"COMMENT": "Повышение скорости на 20% на 10 секунд",
			"TYPE": "GREEN",
			"TAGS": [
				"DROP_CASE_2_1"
			]
		},
		{
			"RANGE": 2,
			"CHANCE": 1,
			"NAME": "Восстановление здоровья",
			"COMMENT": "Полное восстановление здоровья",
			"TYPE": "GREEN",
			"TAGS": [
				"DROP_CASE_2_2"
			]
		},
		{
			"RANGE": 2,
			"CHANCE": 0.5,
			"NAME": "Toaster mode",
			"COMMENT": "Просто попробуйте",
			"TYPE": "RED",
			"TAGS": [
				"DROP_CASE_MAX_1"
			]
		}
	]
}